main.c:190:5:main	16	static,ignoring_inline_asm
main.c:270:6:LoraMacProcessNotify	8	static
main.c:274:13:LORA_HasJoined	8	static
main.c:281:13:Send	120	static
main.c:429:13:SendFromEeprom	88	static
main.c:492:6:EEPROM_Write	24	static
main.c:514:6:EEPROM_Read	24	static
main.c:531:6:EEPROM_EraseWord	32	static
main.c:545:10:stringToInt	32	static
main.c:566:13:EEPROM_TimerEvent	8	static
main.c:571:6:SendEEPROM_Data	8	static
main.c:578:13:LORA_RxData	16	static
main.c:643:13:OnTxTimerEvent	16	static
main.c:650:13:LoraStartTx	48	static
main.c:669:13:LORA_ConfirmClass	16	static
main.c:680:13:LORA_TxNeeded	8	static
main.c:692:9:LORA_GetBatteryLevel	24	static
main.c:714:13:OnTimerLedEvent	16	static
